{
  "project_info": {
    "project_number": "1084090621345",
    "firebase_url": "https://homecarekit-snoring.firebaseio.com",
    "project_id": "homecarekit-snoring",
    "storage_bucket": "homecarekit-snoring.appspot.com"
  },
  "client": [
    {
      "client_info": {
        "mobilesdk_app_id": "1:1084090621345:android:f4d060d132d61d9b",
        "android_client_info": {
          "package_name": "com.homecarekit.snoring"
        }
      },
      "oauth_client": [
        {
          "client_id": "1084090621345-qjnfa0khuausms3c3r5cd7l53kh4u0gi.apps.googleusercontent.com",
          "client_type": 3
        }
      ],
      "api_key": [
        {
          "current_key": "AIzaSyCPScaqZmrLYVG6Xr1j3z4pxsIy0Xasilw"
        }
      ],
      "services": {
        "analytics_service": {
          "status": 1
        },
        "appinvite_service": {
          "status": 1,
          "other_platform_oauth_client": []
        },
        "ads_service": {
          "status": 2
        }
      }
    }
  ],
  "configuration_version": "1"
}